{
    "parameters" :
    {
        "amount" : "[0-99+] Generate a fixed number of dragons instead of a random amount.",
        "amountmin" : "[0-99+] Use in combination with amountmax to specify a random range of dragons to be generated",
        "amountmax" : "[0-99+] Use in combination with amountmin to specify a random range of dragons to be generated",
        "mutationchance" : "[0-100] Override the default chance that a mutation randomly occurs.",
        "father" : "[String] Add a father to use in the generation process to inherit traits from",
        "mother" : "[String] Add a mother to use in the generation process to inherit traits from"
    }
}